{
  "data": [
    {
      "blockchain": "ethereum",
      "brand": "3LAU",
      "category": "music",
      "chain_id": 1,
      "contract_address": "0x02f03ef74bf40d11b96ce2961cc2bb58630754ba",
      "diamond_hands": "0",
      "loss_making_trades": "0",
      "loss_making_volume": 0,
      "profitable_trades": "0",
      "profitable_volume": 0,
      "token_score": 0
    },
    {
      "blockchain": "ethereum",
      "brand": "Adidas",
      "category": "sports",
      "chain_id": 1,
      "contract_address": "0x95353ab606de77d7cf69f5f346fe0e31d9557149",
      "diamond_hands": "0",
      "loss_making_trades": "0",
      "loss_making_volume": 0,
      "profitable_trades": "0",
      "profitable_volume": 0,
      "token_score": 0
    },
    {
      "blockchain": "ethereum",
      "brand": "Adidas",
      "category": "sports",
      "chain_id": 1,
      "contract_address": "0x8141df220aeb0229c1067bc4f3ce0c28431a9ffb",
      "diamond_hands": "0",
      "loss_making_trades": "0",
      "loss_making_volume": 0,
      "profitable_trades": "0",
      "profitable_volume": 0,
      "token_score": 0
    },
    {
      "blockchain": "ethereum",
      "brand": "AirBaltic",
      "category": "Travel",
      "chain_id": 1,
      "contract_address": "0x495f947276749ce646f68ac8c248420045cb7b5e",
      "diamond_hands": "0",
      "loss_making_trades": "5",
      "loss_making_volume": -281.02373965179385,
      "profitable_trades": "1",
      "profitable_volume": 491.4867648133237,
      "token_score": 0
    },
    {
      "blockchain": "ethereum",
      "brand": "Aku dreams",
      "category": "media & entertainment",
      "chain_id": 1,
      "contract_address": "0x6c9369dc930fd794ad0af7511f483d936a2ef7f3",
      "diamond_hands": "0",
      "loss_making_trades": "0",
      "loss_making_volume": 0,
      "profitable_trades": "0",
      "profitable_volume": 0,
      "token_score": 0
    },
    {
      "blockchain": "ethereum",
      "brand": "Armin van Buuren",
      "category": "music",
      "chain_id": 1,
      "contract_address": "0xb3bd41348749b20714c53d6b377219ac6b0515e2",
      "diamond_hands": "0",
      "loss_making_trades": "0",
      "loss_making_volume": 0,
      "profitable_trades": "0",
      "profitable_volume": 0,
      "token_score": 0
    },
    {
      "blockchain": "ethereum",
      "brand": "Audioglyphs",
      "category": "music",
      "chain_id": 1,
      "contract_address": "0xfb3765e0e7ac73e736566af913fa58c3cfd686b7",
      "diamond_hands": "0",
      "loss_making_trades": "0",
      "loss_making_volume": 0,
      "profitable_trades": "0",
      "profitable_volume": 0,
      "token_score": 0
    },
    {
      "blockchain": "ethereum",
      "brand": "Budweiser",
      "category": "food & beverage",
      "chain_id": 1,
      "contract_address": "0x42ab4eb0bbd9e4cdf71bccdfab16830705e7dd37",
      "diamond_hands": "0",
      "loss_making_trades": "0",
      "loss_making_volume": 0,
      "profitable_trades": "0",
      "profitable_volume": 0,
      "token_score": 0
    },
    {
      "blockchain": "ethereum",
      "brand": "Coach",
      "category": "fashion",
      "chain_id": 1,
      "contract_address": "0x12d28b6f0cc4537da1451e8400e332fe2931f23d",
      "diamond_hands": "0",
      "loss_making_trades": "0",
      "loss_making_volume": 0,
      "profitable_trades": "0",
      "profitable_volume": 0,
      "token_score": 0
    },
    {
      "blockchain": "ethereum",
      "brand": "Deafbeef",
      "category": "music",
      "chain_id": 1,
      "contract_address": "0xd754937672300ae6708a51229112de4017810934",
      "diamond_hands": "0",
      "loss_making_trades": "0",
      "loss_making_volume": 0,
      "profitable_trades": "0",
      "profitable_volume": 0,
      "token_score": 0
    },
    {
      "blockchain": "ethereum",
      "brand": "Diplo",
      "category": "music",
      "chain_id": 1,
      "contract_address": "0x1d13888404efe5d6893cb31cfcfba80dfe142879",
      "diamond_hands": "0",
      "loss_making_trades": "0",
      "loss_making_volume": 0,
      "profitable_trades": "0",
      "profitable_volume": 0,
      "token_score": 0
    },
    {
      "blockchain": "ethereum",
      "brand": "Dolce and Gabbana",
      "category": "Fashion",
      "chain_id": 1,
      "contract_address": "0x68f4ba8018216542ac2ab8125166be66304dd71c",
      "diamond_hands": "0",
      "loss_making_trades": "0",
      "loss_making_volume": 0,
      "profitable_trades": "0",
      "profitable_volume": 0,
      "token_score": 0
    },
    {
      "blockchain": "ethereum",
      "brand": "Dolce and Gabbana",
      "category": "Fashion",
      "chain_id": 1,
      "contract_address": "0x4bd77619a75c8eda181e3587339e7011da75bf0e",
      "diamond_hands": "0",
      "loss_making_trades": "0",
      "loss_making_volume": 0,
      "profitable_trades": "0",
      "profitable_volume": 0,
      "token_score": 0
    },
    {
      "blockchain": "ethereum",
      "brand": "Dolce and Gabbana",
      "category": "Fashion",
      "chain_id": 1,
      "contract_address": "0xeb6c5accafd8515c1b9e4c794bdc41532c5543ec",
      "diamond_hands": "0",
      "loss_making_trades": "0",
      "loss_making_volume": 0,
      "profitable_trades": "1",
      "profitable_volume": 48.22834883661246,
      "token_score": 0
    },
    {
      "blockchain": "ethereum",
      "brand": "Dolce and Gabbana",
      "category": "fashion",
      "chain_id": 1,
      "contract_address": "0x5d26060847445efb92c6f03d1382bcdd07b67280",
      "diamond_hands": "0",
      "loss_making_trades": "0",
      "loss_making_volume": 0,
      "profitable_trades": "0",
      "profitable_volume": 0,
      "token_score": 0
    },
    {
      "blockchain": "ethereum",
      "brand": "Dolce and Gabbana",
      "category": "fashion",
      "chain_id": 1,
      "contract_address": "0xd71b53fe1df51075c5a965956cdc87421c2ffed7",
      "diamond_hands": "0",
      "loss_making_trades": "0",
      "loss_making_volume": 0,
      "profitable_trades": "0",
      "profitable_volume": 0,
      "token_score": 0
    },
    {
      "blockchain": "ethereum",
      "brand": "ESPN",
      "category": "media & entertainment",
      "chain_id": 1,
      "contract_address": "0x91cefa84e3cd97cc4f74e59116cccf24a3735a60",
      "diamond_hands": "0",
      "loss_making_trades": "0",
      "loss_making_volume": 0,
      "profitable_trades": "0",
      "profitable_volume": 0,
      "token_score": 0
    },
    {
      "blockchain": "ethereum",
      "brand": "ESPN",
      "category": "media & entertainment",
      "chain_id": 1,
      "contract_address": "0x6cfdb8f0cb7f0799ced4950d8b3ce7d5eb99f834",
      "diamond_hands": "0",
      "loss_making_trades": "0",
      "loss_making_volume": 0,
      "profitable_trades": "0",
      "profitable_volume": 0,
      "token_score": 0
    },
    {
      "blockchain": "ethereum",
      "brand": "Francis De Lara",
      "category": "Fashion",
      "chain_id": 1,
      "contract_address": "0x2b36e8d3a3676c40208bc6e491d3a70d1ac950eb",
      "diamond_hands": "0",
      "loss_making_trades": "0",
      "loss_making_volume": 0,
      "profitable_trades": "0",
      "profitable_volume": 0,
      "token_score": 0
    },
    {
      "blockchain": "ethereum",
      "brand": "G-Star",
      "category": "Fashion",
      "chain_id": 1,
      "contract_address": "0x0a9f82853da45422e03fc8f00b265d583922f98e",
      "diamond_hands": "0",
      "loss_making_trades": "0",
      "loss_making_volume": 0,
      "profitable_trades": "0",
      "profitable_volume": 0,
      "token_score": 0
    },
    {
      "blockchain": "ethereum",
      "brand": "Gala music",
      "category": "music",
      "chain_id": 1,
      "contract_address": "0x63a407bcb34983a5ba683f7555fdfa24dad4f18d",
      "diamond_hands": "0",
      "loss_making_trades": "0",
      "loss_making_volume": 0,
      "profitable_trades": "0",
      "profitable_volume": 0,
      "token_score": 0
    },
    {
      "blockchain": "ethereum",
      "brand": "Givenchy",
      "category": "fashion",
      "chain_id": 1,
      "contract_address": "0xe5d8aedb8dbd3a9eb406e5b11e1838b07712090a",
      "diamond_hands": "0",
      "loss_making_trades": "0",
      "loss_making_volume": 0,
      "profitable_trades": "0",
      "profitable_volume": 0,
      "token_score": 0
    },
    {
      "blockchain": "ethereum",
      "brand": "Givenchy",
      "category": "fashion",
      "chain_id": 1,
      "contract_address": "0xe1eb72894533008a75a50806d77e527e91bde142",
      "diamond_hands": "0",
      "loss_making_trades": "0",
      "loss_making_volume": 0,
      "profitable_trades": "0",
      "profitable_volume": 0,
      "token_score": 0
    },
    {
      "blockchain": "ethereum",
      "brand": "Gucci",
      "category": "fashion",
      "chain_id": 1,
      "contract_address": "0x572e33ffa523865791ab1c26b42a86ac244df784",
      "diamond_hands": "0",
      "loss_making_trades": "0",
      "loss_making_volume": 0,
      "profitable_trades": "0",
      "profitable_volume": 0,
      "token_score": 0
    },
    {
      "blockchain": "ethereum",
      "brand": "Gucci",
      "category": "fashion",
      "chain_id": 1,
      "contract_address": "0x7daec605e9e2a1717326eedfd660601e2753a057",
      "diamond_hands": "0",
      "loss_making_trades": "0",
      "loss_making_volume": 0,
      "profitable_trades": "0",
      "profitable_volume": 0,
      "token_score": 0
    },
    {
      "blockchain": "ethereum",
      "brand": "Gucci",
      "category": "fashion",
      "chain_id": 1,
      "contract_address": "0x07187957e1e8877c7da42a89188fe6b0d80a2370",
      "diamond_hands": "0",
      "loss_making_trades": "0",
      "loss_making_volume": 0,
      "profitable_trades": "0",
      "profitable_volume": 0,
      "token_score": 0
    },
    {
      "blockchain": "ethereum",
      "brand": "Gucci",
      "category": "fashion",
      "chain_id": 1,
      "contract_address": "0x78d61c684a992b0289bbfe58aaa2659f667907f8",
      "diamond_hands": "0",
      "loss_making_trades": "0",
      "loss_making_volume": 0,
      "profitable_trades": "0",
      "profitable_volume": 0,
      "token_score": 0
    },
    {
      "blockchain": "ethereum",
      "brand": "Gucci",
      "category": "fashion",
      "chain_id": 1,
      "contract_address": "0x2d2dd4febaca22f53f95c4427f6801545ab5ec9d",
      "diamond_hands": "0",
      "loss_making_trades": "0",
      "loss_making_volume": 0,
      "profitable_trades": "0",
      "profitable_volume": 0,
      "token_score": 0
    },
    {
      "blockchain": "ethereum",
      "brand": "Gucci",
      "category": "fashion",
      "chain_id": 1,
      "contract_address": "0xc2223ee780429abecf15e2a418ad8ce861b38630",
      "diamond_hands": "0",
      "loss_making_trades": "0",
      "loss_making_volume": 0,
      "profitable_trades": "0",
      "profitable_volume": 0,
      "token_score": 0
    },
    {
      "blockchain": "ethereum",
      "brand": "3LAU",
      "category": "music",
      "chain_id": 1,
      "contract_address": "0x26b365dd6c6c2c5c1b19658ede5ef00c12402702",
      "diamond_hands": "0",
      "loss_making_trades": "0",
      "loss_making_volume": 0,
      "profitable_trades": "0",
      "profitable_volume": 0,
      "token_score": 0
    }
  ],
  "pagination": {
    "has_next": true,
    "limit": 30,
    "offset": 0,
    "total_items": 111
  }
}