{
  "data": [
    {
      "blockchain": "ethereum",
      "brand": "Adidas",
      "category": "sports",
      "chain_id": 1,
      "diamond_hands": "0",
      "loss_making_trades": "0",
      "loss_making_volume": 0,
      "profitable_trades": "0",
      "profitable_volume": 0,
      "token_score": 0
    },
    {
      "blockchain": "ethereum",
      "brand": "AirBaltic",
      "category": "Travel",
      "chain_id": 1,
      "diamond_hands": "0",
      "loss_making_trades": "5",
      "loss_making_volume": -281.02373965179385,
      "profitable_trades": "1",
      "profitable_volume": 491.4867648133237,
      "token_score": 0
    },
    {
      "blockchain": "ethereum",
      "brand": "Aku dreams",
      "category": "media & entertainment",
      "chain_id": 1,
      "diamond_hands": "0",
      "loss_making_trades": "0",
      "loss_making_volume": 0,
      "profitable_trades": "0",
      "profitable_volume": 0,
      "token_score": 0
    },
    {
      "blockchain": "ethereum",
      "brand": "Armin van Buuren",
      "category": "music",
      "chain_id": 1,
      "diamond_hands": "0",
      "loss_making_trades": "0",
      "loss_making_volume": 0,
      "profitable_trades": "0",
      "profitable_volume": 0,
      "token_score": 0
    },
    {
      "blockchain": "ethereum",
      "brand": "Audioglyphs",
      "category": "music",
      "chain_id": 1,
      "diamond_hands": "0",
      "loss_making_trades": "0",
      "loss_making_volume": 0,
      "profitable_trades": "0",
      "profitable_volume": 0,
      "token_score": 0
    },
    {
      "blockchain": "ethereum",
      "brand": "Budweiser",
      "category": "food & beverage",
      "chain_id": 1,
      "diamond_hands": "0",
      "loss_making_trades": "0",
      "loss_making_volume": 0,
      "profitable_trades": "0",
      "profitable_volume": 0,
      "token_score": 0
    },
    {
      "blockchain": "ethereum",
      "brand": "Coach",
      "category": "fashion",
      "chain_id": 1,
      "diamond_hands": "0",
      "loss_making_trades": "0",
      "loss_making_volume": 0,
      "profitable_trades": "0",
      "profitable_volume": 0,
      "token_score": 0
    },
    {
      "blockchain": "ethereum",
      "brand": "Deafbeef",
      "category": "music",
      "chain_id": 1,
      "diamond_hands": "0",
      "loss_making_trades": "0",
      "loss_making_volume": 0,
      "profitable_trades": "0",
      "profitable_volume": 0,
      "token_score": 0
    },
    {
      "blockchain": "ethereum",
      "brand": "Diplo",
      "category": "music",
      "chain_id": 1,
      "diamond_hands": "0",
      "loss_making_trades": "0",
      "loss_making_volume": 0,
      "profitable_trades": "0",
      "profitable_volume": 0,
      "token_score": 0
    },
    {
      "blockchain": "ethereum",
      "brand": "Dolce and Gabbana",
      "category": "Fashion",
      "chain_id": 1,
      "diamond_hands": "0",
      "loss_making_trades": "0",
      "loss_making_volume": 0,
      "profitable_trades": "1",
      "profitable_volume": 48.22834883661246,
      "token_score": 0
    },
    {
      "blockchain": "ethereum",
      "brand": "Dolce and Gabbana",
      "category": "fashion",
      "chain_id": 1,
      "diamond_hands": "0",
      "loss_making_trades": "0",
      "loss_making_volume": 0,
      "profitable_trades": "0",
      "profitable_volume": 0,
      "token_score": 0
    },
    {
      "blockchain": "ethereum",
      "brand": "ESPN",
      "category": "media & entertainment",
      "chain_id": 1,
      "diamond_hands": "0",
      "loss_making_trades": "0",
      "loss_making_volume": 0,
      "profitable_trades": "0",
      "profitable_volume": 0,
      "token_score": 0
    },
    {
      "blockchain": "ethereum",
      "brand": "Francis De Lara",
      "category": "Fashion",
      "chain_id": 1,
      "diamond_hands": "0",
      "loss_making_trades": "0",
      "loss_making_volume": 0,
      "profitable_trades": "0",
      "profitable_volume": 0,
      "token_score": 0
    },
    {
      "blockchain": "ethereum",
      "brand": "G-Star",
      "category": "Fashion",
      "chain_id": 1,
      "diamond_hands": "0",
      "loss_making_trades": "0",
      "loss_making_volume": 0,
      "profitable_trades": "0",
      "profitable_volume": 0,
      "token_score": 0
    },
    {
      "blockchain": "ethereum",
      "brand": "Gala music",
      "category": "music",
      "chain_id": 1,
      "diamond_hands": "0",
      "loss_making_trades": "0",
      "loss_making_volume": 0,
      "profitable_trades": "0",
      "profitable_volume": 0,
      "token_score": 0
    },
    {
      "blockchain": "ethereum",
      "brand": "Givenchy",
      "category": "fashion",
      "chain_id": 1,
      "diamond_hands": "0",
      "loss_making_trades": "0",
      "loss_making_volume": 0,
      "profitable_trades": "0",
      "profitable_volume": 0,
      "token_score": 0
    },
    {
      "blockchain": "ethereum",
      "brand": "Gucci",
      "category": "fashion",
      "chain_id": 1,
      "diamond_hands": "0",
      "loss_making_trades": "0",
      "loss_making_volume": 0,
      "profitable_trades": "0",
      "profitable_volume": 0,
      "token_score": 0
    },
    {
      "blockchain": "ethereum",
      "brand": "HIGHSNOBIETY",
      "category": "fashion",
      "chain_id": 1,
      "diamond_hands": "0",
      "loss_making_trades": "0",
      "loss_making_volume": 0,
      "profitable_trades": "0",
      "profitable_volume": 0,
      "token_score": 0
    },
    {
      "blockchain": "ethereum",
      "brand": "Havaianas",
      "category": "fashion",
      "chain_id": 1,
      "diamond_hands": "0",
      "loss_making_trades": "0",
      "loss_making_volume": 0,
      "profitable_trades": "0",
      "profitable_volume": 0,
      "token_score": 0
    },
    {
      "blockchain": "ethereum",
      "brand": "Hublot",
      "category": "fashion",
      "chain_id": 1,
      "diamond_hands": "0",
      "loss_making_trades": "0",
      "loss_making_volume": 0,
      "profitable_trades": "0",
      "profitable_volume": 0,
      "token_score": 0
    },
    {
      "blockchain": "ethereum",
      "brand": "Hugo",
      "category": "fashion",
      "chain_id": 1,
      "diamond_hands": "0",
      "loss_making_trades": "0",
      "loss_making_volume": 0,
      "profitable_trades": "0",
      "profitable_volume": 0,
      "token_score": 0
    },
    {
      "blockchain": "ethereum",
      "brand": "Karafuru",
      "category": "fashion",
      "chain_id": 1,
      "diamond_hands": "0",
      "loss_making_trades": "0",
      "loss_making_volume": 0,
      "profitable_trades": "0",
      "profitable_volume": 0,
      "token_score": 0
    },
    {
      "blockchain": "ethereum",
      "brand": "Kingship",
      "category": "music",
      "chain_id": 1,
      "diamond_hands": "0",
      "loss_making_trades": "0",
      "loss_making_volume": 0,
      "profitable_trades": "0",
      "profitable_volume": 0,
      "token_score": 0
    },
    {
      "blockchain": "ethereum",
      "brand": "Kith Friends",
      "category": "fashion",
      "chain_id": 1,
      "diamond_hands": "0",
      "loss_making_trades": "0",
      "loss_making_volume": 0,
      "profitable_trades": "0",
      "profitable_volume": 0,
      "token_score": 0
    },
    {
      "blockchain": "ethereum",
      "brand": "Lamborghini",
      "category": "sports",
      "chain_id": 1,
      "diamond_hands": "0",
      "loss_making_trades": "0",
      "loss_making_volume": 0,
      "profitable_trades": "0",
      "profitable_volume": 0,
      "token_score": 0
    },
    {
      "blockchain": "ethereum",
      "brand": "LoudPunx",
      "category": "music",
      "chain_id": 1,
      "diamond_hands": "0",
      "loss_making_trades": "0",
      "loss_making_volume": 0,
      "profitable_trades": "0",
      "profitable_volume": 0,
      "token_score": 0
    },
    {
      "blockchain": "ethereum",
      "brand": "Louis vuitton",
      "category": "fashion",
      "chain_id": 1,
      "diamond_hands": "0",
      "loss_making_trades": "0",
      "loss_making_volume": 0,
      "profitable_trades": "0",
      "profitable_volume": 0,
      "token_score": 0
    },
    {
      "blockchain": "ethereum",
      "brand": "Louis vuitton",
      "category": "arts",
      "chain_id": 1,
      "diamond_hands": "0",
      "loss_making_trades": "0",
      "loss_making_volume": 0,
      "profitable_trades": "0",
      "profitable_volume": 0,
      "token_score": 0
    },
    {
      "blockchain": "ethereum",
      "brand": "Mercedes Benz",
      "category": "sports",
      "chain_id": 1,
      "diamond_hands": "0",
      "loss_making_trades": "0",
      "loss_making_volume": 0,
      "profitable_trades": "0",
      "profitable_volume": 0,
      "token_score": 0
    },
    {
      "blockchain": "ethereum",
      "brand": "3LAU",
      "category": "music",
      "chain_id": 1,
      "diamond_hands": "0",
      "loss_making_trades": "0",
      "loss_making_volume": 0,
      "profitable_trades": "0",
      "profitable_volume": 0,
      "token_score": 0
    }
  ],
  "pagination": {
    "has_next": true,
    "limit": 30,
    "offset": 0,
    "total_items": 77
  }
}